<svg xmlns="http://www.w3.org/2000/svg" viewBox="0 0 7.41 12">
    <title>자산 1</title>
    <g id="레이어_2" data-name="레이어 2">
        <g id="레이어_1-2" data-name="레이어 1">
            <path fill="#262626" d="M0,10.59,4.58,6,0,1.41,1.41,0l6,6-6,6Z"/>
        </g>
    </g>
</svg>